<mxfile host="65bd71144e">
    <diagram id="45tsnC0X6xDTfrfTVYfo" name="Page-1">
        <mxGraphModel dx="1257" dy="2516" grid="1" gridSize="10" guides="1" tooltips="1" connect="1" arrows="1" fold="1" page="1" pageScale="1" pageWidth="827" pageHeight="1169" math="0" shadow="0">
            <root>
                <mxCell id="0"/>
                <mxCell id="1" parent="0"/>
                <mxCell id="HX9xTB-Y2h5v8YS4ogRR-35" value="" style="rounded=0;whiteSpace=wrap;html=1;fillColor=#dae8fc;dashed=1;strokeColor=#6c8ebf;fontStyle=1;fontFamily=Helvetica;fontSize=13;" parent="1" vertex="1">
                    <mxGeometry x="180" y="10" width="1040" height="270" as="geometry"/>
                </mxCell>
                <mxCell id="91" value="" style="edgeStyle=none;curved=1;rounded=0;sketch=1;hachureGap=4;orthogonalLoop=1;jettySize=auto;html=1;fontFamily=Architects Daughter;fontSource=https%3A%2F%2Ffonts.googleapis.com%2Fcss%3Ffamily%3DArchitects%2BDaughter;fontSize=16;endArrow=open;endFill=0;sourcePerimeterSpacing=8;targetPerimeterSpacing=8;" parent="1" source="64" target="HX9xTB-Y2h5v8YS4ogRR-35" edge="1">
                    <mxGeometry relative="1" as="geometry"/>
                </mxCell>
                <mxCell id="64" value="" style="rounded=0;whiteSpace=wrap;html=1;fillColor=#f9f7ed;dashed=1;strokeColor=#36393d;fontStyle=1;fontFamily=Helvetica;fontSize=13;" parent="1" vertex="1">
                    <mxGeometry x="180" y="-136" width="1040" height="96" as="geometry"/>
                </mxCell>
                <mxCell id="81" value="" style="edgeStyle=orthogonalEdgeStyle;rounded=0;hachureGap=4;orthogonalLoop=1;jettySize=auto;html=1;fontFamily=Helvetica;fontSource=https%3A%2F%2Ffonts.googleapis.com%2Fcss%3Ffamily%3DArchitects%2BDaughter;fontSize=13;fontColor=#33FF33;endArrow=open;sourcePerimeterSpacing=8;targetPerimeterSpacing=8;entryX=0.5;entryY=0;entryDx=0;entryDy=0;" parent="1" target="76" edge="1">
                    <mxGeometry relative="1" as="geometry">
                        <Array as="points"/>
                        <mxPoint x="701" y="285" as="sourcePoint"/>
                    </mxGeometry>
                </mxCell>
                <mxCell id="HX9xTB-Y2h5v8YS4ogRR-43" value="CRANE DETECTION" style="text;html=1;resizable=0;autosize=1;align=center;verticalAlign=middle;points=[];fillColor=none;strokeColor=none;rounded=0;dashed=1;fontFamily=Helvetica;fontSize=13;fontStyle=1;" parent="1" vertex="1">
                    <mxGeometry x="1072" y="250" width="140" height="20" as="geometry"/>
                </mxCell>
                <mxCell id="23" value="" style="edgeStyle=none;curved=1;hachureGap=4;orthogonalLoop=1;jettySize=auto;html=1;fontFamily=Architects Daughter;fontSource=https%3A%2F%2Ffonts.googleapis.com%2Fcss%3Ffamily%3DArchitects%2BDaughter;fontSize=16;endArrow=open;sourcePerimeterSpacing=8;targetPerimeterSpacing=8;" parent="1" source="19" target="20" edge="1">
                    <mxGeometry relative="1" as="geometry"/>
                </mxCell>
                <mxCell id="19" value="顶雷达点云进行地面矫正，并转到车体" style="rounded=0;whiteSpace=wrap;html=1;fontStyle=0;fontFamily=Helvetica;fontSize=13;" parent="1" vertex="1">
                    <mxGeometry x="595" y="51.5" width="206" height="60" as="geometry"/>
                </mxCell>
                <mxCell id="24" value="" style="edgeStyle=none;curved=1;hachureGap=4;orthogonalLoop=1;jettySize=auto;html=1;fontFamily=Architects Daughter;fontSource=https%3A%2F%2Ffonts.googleapis.com%2Fcss%3Ffamily%3DArchitects%2BDaughter;fontSize=16;endArrow=open;sourcePerimeterSpacing=8;targetPerimeterSpacing=8;" parent="1" source="20" target="21" edge="1">
                    <mxGeometry relative="1" as="geometry"/>
                </mxCell>
                <mxCell id="20" value="利用各种操作及参数，提取桥腿横壁上的点，进行直线拟合，计算imu到左右桥腿的距离等信息" style="rounded=0;whiteSpace=wrap;html=1;fontStyle=0;fontFamily=Helvetica;fontSize=13;" parent="1" vertex="1">
                    <mxGeometry x="905" y="51.5" width="280" height="60" as="geometry"/>
                </mxCell>
                <mxCell id="21" value="跟踪（平滑）检测结果" style="rounded=0;whiteSpace=wrap;html=1;fontStyle=0;fontFamily=Helvetica;fontSize=13;" parent="1" vertex="1">
                    <mxGeometry x="960" y="168.5" width="170" height="60" as="geometry"/>
                </mxCell>
                <mxCell id="65" value="INPUT" style="text;html=1;resizable=0;autosize=1;align=center;verticalAlign=middle;points=[];fillColor=none;strokeColor=none;rounded=0;dashed=1;fontFamily=Helvetica;fontSize=13;fontStyle=1;" parent="1" vertex="1">
                    <mxGeometry x="1150" y="-70" width="50" height="20" as="geometry"/>
                </mxCell>
                <mxCell id="68" value="&lt;span&gt;/p40m_0/pandar_points&lt;br&gt;/pxt32_1/pandar_points&lt;br&gt;/map/region&lt;br&gt;/tf_static&lt;br&gt;&lt;/span&gt;" style="rounded=0;whiteSpace=wrap;html=1;fontStyle=1;fontFamily=Helvetica;fontSize=13;align=left;spacingLeft=5;" parent="1" vertex="1">
                    <mxGeometry x="580" y="-125" width="230" height="74" as="geometry"/>
                </mxCell>
                <mxCell id="76" value="" style="rounded=0;whiteSpace=wrap;html=1;fillColor=#f9f7ed;dashed=1;strokeColor=#36393d;fontStyle=1;fontFamily=Helvetica;fontSize=13;" parent="1" vertex="1">
                    <mxGeometry x="180" y="332" width="1041" height="110" as="geometry"/>
                </mxCell>
                <mxCell id="77" value="OUTPUT" style="text;html=1;resizable=0;autosize=1;align=center;verticalAlign=middle;points=[];fillColor=none;strokeColor=none;rounded=0;dashed=1;fontFamily=Helvetica;fontSize=13;fontStyle=1;" parent="1" vertex="1">
                    <mxGeometry x="1142" y="422" width="70" height="20" as="geometry"/>
                </mxCell>
                <mxCell id="78" value="/crane_detection/composite&lt;br&gt;&lt;span&gt;/crane_detection/pc_left&lt;br&gt;/crane_detection/pc_right&lt;br&gt;/crane_detection/marker&lt;br&gt;&lt;/span&gt;" style="rounded=0;whiteSpace=wrap;html=1;fontStyle=1;fontFamily=Helvetica;fontSize=13;align=left;spacingLeft=5;" parent="1" vertex="1">
                    <mxGeometry x="767" y="348" width="330" height="78" as="geometry"/>
                </mxCell>
                <mxCell id="79" value="/crane_detection/crane&lt;span&gt;&lt;br&gt;&lt;/span&gt;" style="rounded=0;whiteSpace=wrap;html=1;fontStyle=1;fontFamily=Helvetica;fontSize=13;align=left;spacingLeft=5;" parent="1" vertex="1">
                    <mxGeometry x="312" y="373" width="230" height="30" as="geometry"/>
                </mxCell>
                <mxCell id="87" value="" style="edgeStyle=none;curved=1;rounded=0;sketch=1;hachureGap=4;orthogonalLoop=1;jettySize=auto;html=1;fontFamily=Architects Daughter;fontSource=https%3A%2F%2Ffonts.googleapis.com%2Fcss%3Ffamily%3DArchitects%2BDaughter;fontSize=16;endArrow=open;endFill=0;sourcePerimeterSpacing=8;targetPerimeterSpacing=8;" parent="1" source="82" target="19" edge="1">
                    <mxGeometry relative="1" as="geometry"/>
                </mxCell>
                <mxCell id="82" value="读取参数及tf等；判断是否进行桥腿检测（进入岸桥区域或不使用地图）" style="rounded=0;whiteSpace=wrap;html=1;fontStyle=0;fontFamily=Helvetica;fontSize=13;" parent="1" vertex="1">
                    <mxGeometry x="220" y="54.5" width="230" height="60" as="geometry"/>
                </mxCell>
                <mxCell id="92" value="定&lt;br&gt;位&lt;br&gt;" style="text;html=1;resizable=0;autosize=1;align=center;verticalAlign=middle;points=[];fillColor=none;strokeColor=none;rounded=0;dashed=1;fontFamily=Helvetica;fontSize=13;fontStyle=0;horizontal=1;" parent="1" vertex="1">
                    <mxGeometry x="260" y="368" width="30" height="40" as="geometry"/>
                </mxCell>
                <mxCell id="99" value="调&lt;br&gt;试" style="text;html=1;resizable=0;autosize=1;align=center;verticalAlign=middle;points=[];fillColor=none;strokeColor=none;rounded=0;dashed=1;fontFamily=Helvetica;fontSize=13;fontStyle=0;horizontal=1;" parent="1" vertex="1">
                    <mxGeometry x="720" y="368" width="30" height="40" as="geometry"/>
                </mxCell>
            </root>
        </mxGraphModel>
    </diagram>
</mxfile>