<mxfile host="65bd71144e">
    <diagram id="I5gugzxm0xoKvP4uARvD" name="Page-1">
        <mxGraphModel dx="2716" dy="995" grid="1" gridSize="10" guides="1" tooltips="1" connect="1" arrows="1" fold="1" page="1" pageScale="1" pageWidth="850" pageHeight="1100" math="0" shadow="0">
            <root>
                <mxCell id="0"/>
                <mxCell id="1" parent="0"/>
                <mxCell id="41" value="" style="edgeStyle=none;curved=1;rounded=0;orthogonalLoop=1;jettySize=auto;endArrow=open;startSize=14;endSize=14;sourcePerimeterSpacing=8;targetPerimeterSpacing=8;sketch=1;curveFitting=1;jiggle=2;strokeColor=default;html=1;" edge="1" parent="1" source="35" target="36">
                    <mxGeometry relative="1" as="geometry"/>
                </mxCell>
                <mxCell id="35" value="车道线两个基础模型（IMV&amp;amp;Truck）&lt;br&gt;" style="rounded=0;fillStyle=hatch;shadow=0;fillColor=none;sketch=1;curveFitting=1;jiggle=2;strokeColor=default;whiteSpace=wrap;html=1;" parent="1" vertex="1">
                    <mxGeometry x="-516" y="367" width="157.48" height="47.244" as="geometry"/>
                </mxCell>
                <mxCell id="42" value="" style="edgeStyle=none;curved=1;rounded=0;orthogonalLoop=1;jettySize=auto;endArrow=open;startSize=14;endSize=14;sourcePerimeterSpacing=8;targetPerimeterSpacing=8;sketch=1;curveFitting=1;jiggle=2;strokeColor=default;html=1;" edge="1" parent="1" source="36" target="38">
                    <mxGeometry relative="1" as="geometry"/>
                </mxCell>
                <mxCell id="45" value="" style="edgeStyle=none;curved=1;rounded=0;sketch=1;orthogonalLoop=1;jettySize=auto;endArrow=none;startSize=14;endSize=14;sourcePerimeterSpacing=8;targetPerimeterSpacing=8;strokeColor=default;endFill=0;html=1;" edge="1" parent="1" source="36" target="37">
                    <mxGeometry relative="1" as="geometry"/>
                </mxCell>
                <mxCell id="63" value="" style="edgeStyle=orthogonalEdgeStyle;rounded=0;sketch=1;orthogonalLoop=1;jettySize=auto;dashed=1;strokeColor=default;startArrow=none;startFill=0;endArrow=open;endFill=0;startSize=14;endSize=14;sourcePerimeterSpacing=8;targetPerimeterSpacing=8;html=1;" edge="1" parent="1" source="36">
                    <mxGeometry relative="1" as="geometry">
                        <mxPoint x="-330" y="531" as="targetPoint"/>
                    </mxGeometry>
                </mxCell>
                <mxCell id="36" value="效果OK？" style="rhombus;fillColor=none;shadow=0;sketch=1;curveFitting=1;jiggle=2;strokeColor=default;whiteSpace=wrap;html=1;" vertex="1" parent="1">
                    <mxGeometry x="-510" y="506" width="140" height="50" as="geometry"/>
                </mxCell>
                <mxCell id="49" value="" style="edgeStyle=orthogonalEdgeStyle;rounded=0;sketch=1;orthogonalLoop=1;jettySize=auto;strokeColor=default;endArrow=open;startSize=14;endSize=14;sourcePerimeterSpacing=8;targetPerimeterSpacing=8;entryX=1;entryY=0.5;entryDx=0;entryDy=0;html=1;" edge="1" parent="1" source="37" target="40">
                    <mxGeometry relative="1" as="geometry">
                        <mxPoint x="-240" y="886" as="targetPoint"/>
                        <Array as="points">
                            <mxPoint x="-250" y="889"/>
                        </Array>
                    </mxGeometry>
                </mxCell>
                <mxCell id="37" value="开启分散自动采集模块&lt;br&gt;积累Jira" style="rounded=0;fillColor=none;shadow=0;sketch=1;curveFitting=1;jiggle=2;strokeColor=default;whiteSpace=wrap;html=1;" vertex="1" parent="1">
                    <mxGeometry x="-324" y="507.76" width="157.48" height="47.244" as="geometry"/>
                </mxCell>
                <mxCell id="43" value="" style="edgeStyle=none;curved=1;rounded=0;orthogonalLoop=1;jettySize=auto;endArrow=open;startSize=14;endSize=14;sourcePerimeterSpacing=8;targetPerimeterSpacing=8;sketch=1;curveFitting=1;jiggle=2;strokeColor=default;html=1;" edge="1" parent="1" source="38" target="39">
                    <mxGeometry relative="1" as="geometry"/>
                </mxCell>
                <mxCell id="67" value="" style="edgeStyle=orthogonalEdgeStyle;rounded=0;sketch=1;orthogonalLoop=1;jettySize=auto;strokeColor=default;startArrow=none;startFill=0;endArrow=none;endFill=0;startSize=14;endSize=14;sourcePerimeterSpacing=8;targetPerimeterSpacing=8;html=1;" edge="1" parent="1" source="38">
                    <mxGeometry relative="1" as="geometry">
                        <mxPoint x="-348.52" y="531.3800000000001" as="targetPoint"/>
                    </mxGeometry>
                </mxCell>
                <mxCell id="38" value="项目紧急？" style="rhombus;fillColor=none;shadow=0;sketch=1;curveFitting=1;jiggle=2;strokeColor=default;whiteSpace=wrap;html=1;" vertex="1" parent="1">
                    <mxGeometry x="-510" y="619" width="140" height="50" as="geometry"/>
                </mxCell>
                <mxCell id="44" value="" style="edgeStyle=none;curved=1;rounded=0;orthogonalLoop=1;jettySize=auto;endArrow=open;startSize=14;endSize=14;sourcePerimeterSpacing=8;targetPerimeterSpacing=8;sketch=1;curveFitting=1;jiggle=2;strokeColor=default;html=1;" edge="1" parent="1" source="39" target="40">
                    <mxGeometry relative="1" as="geometry"/>
                </mxCell>
                <mxCell id="39" value="集中采集" style="rounded=0;fillColor=none;shadow=0;sketch=1;curveFitting=1;jiggle=2;strokeColor=default;whiteSpace=wrap;html=1;" vertex="1" parent="1">
                    <mxGeometry x="-519" y="746.5" width="157.48" height="47.244" as="geometry"/>
                </mxCell>
                <mxCell id="47" value="" style="edgeStyle=orthogonalEdgeStyle;rounded=0;sketch=1;orthogonalLoop=1;jettySize=auto;strokeColor=default;endArrow=open;startSize=14;endSize=14;sourcePerimeterSpacing=8;targetPerimeterSpacing=8;entryX=0;entryY=0.5;entryDx=0;entryDy=0;startArrow=none;startFill=0;html=1;" edge="1" parent="1" source="40" target="35">
                    <mxGeometry relative="1" as="geometry">
                        <Array as="points">
                            <mxPoint x="-560" y="881"/>
                            <mxPoint x="-560" y="390"/>
                            <mxPoint x="-519" y="390"/>
                        </Array>
                    </mxGeometry>
                </mxCell>
                <mxCell id="40" value="CVAT半自动标注" style="rounded=0;fillColor=none;shadow=0;sketch=1;curveFitting=1;jiggle=2;strokeColor=default;whiteSpace=wrap;html=1;" vertex="1" parent="1">
                    <mxGeometry x="-519" y="865" width="157.48" height="47.244" as="geometry"/>
                </mxCell>
                <mxCell id="46" value="" style="shape=waypoint;sketch=1;size=6;pointerEvents=1;points=[];fillColor=none;resizable=0;rotatable=0;perimeter=centerPerimeter;snapToPoint=1;rounded=0;shadow=0;curveFitting=1;jiggle=2;html=1;" vertex="1" parent="1">
                    <mxGeometry x="-770" y="460.00199999999995" width="20" height="20" as="geometry"/>
                </mxCell>
                <mxCell id="54" value="" style="edgeStyle=orthogonalEdgeStyle;rounded=0;sketch=1;orthogonalLoop=1;jettySize=auto;strokeColor=default;endArrow=none;startSize=14;endSize=14;sourcePerimeterSpacing=8;targetPerimeterSpacing=8;entryX=1;entryY=0.5;entryDx=0;entryDy=0;startArrow=open;startFill=0;exitX=0.5;exitY=1;exitDx=0;exitDy=0;endFill=0;dashed=1;html=1;" edge="1" parent="1" source="40" target="35">
                    <mxGeometry relative="1" as="geometry">
                        <mxPoint x="-517" y="890.5999999999999" as="sourcePoint"/>
                        <mxPoint x="-509" y="412.62200000000007" as="targetPoint"/>
                        <Array as="points">
                            <mxPoint x="-440" y="960"/>
                            <mxPoint x="-150" y="960"/>
                            <mxPoint x="-150" y="391"/>
                        </Array>
                    </mxGeometry>
                </mxCell>
                <mxCell id="57" value="YES" style="text;strokeColor=none;fillColor=none;align=center;verticalAlign=middle;whiteSpace=wrap;rounded=0;shadow=0;html=1;" vertex="1" parent="1">
                    <mxGeometry x="-383" y="495" width="60" height="30" as="geometry"/>
                </mxCell>
                <mxCell id="58" value="YES" style="text;strokeColor=none;fillColor=none;align=center;verticalAlign=middle;whiteSpace=wrap;rounded=0;shadow=0;html=1;" vertex="1" parent="1">
                    <mxGeometry x="-443" y="690" width="60" height="30" as="geometry"/>
                </mxCell>
                <mxCell id="59" value="NO" style="text;strokeColor=none;fillColor=none;align=center;verticalAlign=middle;whiteSpace=wrap;rounded=0;shadow=0;html=1;" vertex="1" parent="1">
                    <mxGeometry x="-451" y="572" width="60" height="30" as="geometry"/>
                </mxCell>
                <mxCell id="60" value="" style="shape=waypoint;sketch=1;size=6;pointerEvents=1;points=[];fillColor=none;resizable=0;rotatable=0;perimeter=centerPerimeter;snapToPoint=1;shadow=0;curveFitting=1;jiggle=2;html=1;" vertex="1" parent="1">
                    <mxGeometry x="-190" y="634" width="20" height="20" as="geometry"/>
                </mxCell>
                <mxCell id="68" value="NO" style="text;strokeColor=none;fillColor=none;align=center;verticalAlign=middle;whiteSpace=wrap;rounded=0;shadow=0;html=1;" vertex="1" parent="1">
                    <mxGeometry x="-360" y="572" width="60" height="30" as="geometry"/>
                </mxCell>
                <mxCell id="69" value="更新模型" style="text;strokeColor=none;fillColor=none;align=center;verticalAlign=middle;whiteSpace=wrap;rounded=0;shadow=0;horizontal=1;html=1;" vertex="1" parent="1">
                    <mxGeometry x="-584" y="627" width="10" height="30" as="geometry"/>
                </mxCell>
                <mxCell id="70" value="提供半自动标注支持" style="text;strokeColor=none;fillColor=none;align=center;verticalAlign=middle;whiteSpace=wrap;rounded=0;shadow=0;horizontal=1;html=1;" vertex="1" parent="1">
                    <mxGeometry x="-139" y="623" width="10" height="30" as="geometry"/>
                </mxCell>
            </root>
        </mxGraphModel>
    </diagram>
</mxfile>